EESchema Schematic File Version 4
EELAYER 30 0
EELAYER END
$Descr A4 11693 8268
encoding utf-8
Sheet 2 2
Title ""
Date ""
Rev ""
Comp ""
Comment1 ""
Comment2 ""
Comment3 ""
Comment4 ""
$EndDescr
$Comp
L Device:Speaker LS?
U 1 1 5EF82FC1
P 5000 3900
AR Path="/5EF82FC1" Ref="LS?"  Part="1" 
AR Path="/5EF570ED/5EF82FC1" Ref="LS1"  Part="1" 
F 0 "LS1" H 5170 3896 50  0000 L CNN
F 1 "Speaker" H 5170 3805 50  0000 L CNN
F 2 "Buzzer_Beeper:PUIAudio_SMT_0825_S_4_R" H 5000 3700 50  0001 C CNN
F 3 "~" H 4990 3850 50  0001 C CNN
	1    5000 3900
	1    0    0    -1  
$EndComp
Wire Wire Line
	5950 4300 5950 4350
$Comp
L power:GND #PWR?
U 1 1 5EF82FD6
P 3750 4650
AR Path="/5EF82FD6" Ref="#PWR?"  Part="1" 
AR Path="/5EF570ED/5EF82FD6" Ref="#PWR035"  Part="1" 
F 0 "#PWR035" H 3750 4400 50  0001 C CNN
F 1 "GND" H 3755 4477 50  0000 C CNN
F 2 "" H 3750 4650 50  0001 C CNN
F 3 "" H 3750 4650 50  0001 C CNN
	1    3750 4650
	1    0    0    -1  
$EndComp
$Comp
L Device:C C?
U 1 1 5EF82FDC
P 2600 3850
AR Path="/5EF82FDC" Ref="C?"  Part="1" 
AR Path="/5EF570ED/5EF82FDC" Ref="C15"  Part="1" 
F 0 "C15" V 2800 4000 50  0000 C CNN
F 1 "1uF" V 2700 4000 50  0000 C CNN
F 2 "Capacitor_SMD:C_0603_1608Metric_Pad1.05x0.95mm_HandSolder" H 2638 3700 50  0001 C CNN
F 3 "~" H 2600 3850 50  0001 C CNN
	1    2600 3850
	0    -1   -1   0   
$EndComp
$Comp
L power:GND #PWR?
U 1 1 5EF82FE2
P 2350 4650
AR Path="/5EF82FE2" Ref="#PWR?"  Part="1" 
AR Path="/5EF570ED/5EF82FE2" Ref="#PWR028"  Part="1" 
F 0 "#PWR028" H 2350 4400 50  0001 C CNN
F 1 "GND" H 2355 4477 50  0000 C CNN
F 2 "" H 2350 4650 50  0001 C CNN
F 3 "" H 2350 4650 50  0001 C CNN
	1    2350 4650
	1    0    0    -1  
$EndComp
$Comp
L Device:R R?
U 1 1 5EF82FE8
P 3250 4450
AR Path="/5EF82FE8" Ref="R?"  Part="1" 
AR Path="/5EF570ED/5EF82FE8" Ref="R15"  Part="1" 
F 0 "R15" H 3320 4496 50  0000 L CNN
F 1 "47K" H 3320 4405 50  0000 L CNN
F 2 "Resistor_SMD:R_0603_1608Metric_Pad1.05x0.95mm_HandSolder" V 3180 4450 50  0001 C CNN
F 3 "~" H 3250 4450 50  0001 C CNN
	1    3250 4450
	1    0    0    -1  
$EndComp
$Comp
L power:GND #PWR?
U 1 1 5EF82FEE
P 6300 4400
AR Path="/5EF82FEE" Ref="#PWR?"  Part="1" 
AR Path="/5EF570ED/5EF82FEE" Ref="#PWR043"  Part="1" 
F 0 "#PWR043" H 6300 4150 50  0001 C CNN
F 1 "GND" H 6305 4227 50  0000 C CNN
F 2 "" H 6300 4400 50  0001 C CNN
F 3 "" H 6300 4400 50  0001 C CNN
	1    6300 4400
	1    0    0    -1  
$EndComp
Wire Wire Line
	6300 4300 6300 4350
$Comp
L Amplifier_Audio:PAM8302AAS U?
U 1 1 5EF82FF5
P 3750 4050
AR Path="/5EF82FF5" Ref="U?"  Part="1" 
AR Path="/5EF570ED/5EF82FF5" Ref="U2"  Part="1" 
F 0 "U2" H 3800 4600 50  0000 C CNN
F 1 "PAM8302AAS" H 4000 4500 50  0000 C CNN
F 2 "Package_SO:MSOP-8_3x3mm_P0.65mm" H 3750 4050 50  0001 C CNN
F 3 "https://www.diodes.com/assets/Datasheets/PAM8302A.pdf" H 3750 4050 50  0001 C CNN
	1    3750 4050
	1    0    0    -1  
$EndComp
Wire Wire Line
	4800 3850 4800 3900
Wire Wire Line
	4800 4000 4800 4050
Wire Wire Line
	4500 4050 4400 4050
Wire Wire Line
	3750 4450 3750 4650
Wire Wire Line
	3350 4050 3200 4050
Wire Wire Line
	2900 4050 2750 4050
$Comp
L Device:C C?
U 1 1 5EF83003
P 2600 4050
AR Path="/5EF83003" Ref="C?"  Part="1" 
AR Path="/5EF570ED/5EF83003" Ref="C16"  Part="1" 
F 0 "C16" V 2550 4200 50  0000 C CNN
F 1 "1uF" V 2700 4200 50  0000 C CNN
F 2 "Capacitor_SMD:C_0603_1608Metric_Pad1.05x0.95mm_HandSolder" H 2638 3900 50  0001 C CNN
F 3 "~" H 2600 4050 50  0001 C CNN
	1    2600 4050
	0    -1   -1   0   
$EndComp
Wire Wire Line
	2450 4050 2350 4050
Wire Wire Line
	2350 4050 2350 4650
Wire Wire Line
	6300 4350 5950 4350
Connection ~ 6300 4350
Wire Wire Line
	6300 4350 6300 4400
Wire Wire Line
	3350 4250 3250 4250
Wire Wire Line
	3250 4250 3250 4300
$Comp
L power:GND #PWR?
U 1 1 5EF83010
P 3250 4650
AR Path="/5EF83010" Ref="#PWR?"  Part="1" 
AR Path="/5EF570ED/5EF83010" Ref="#PWR032"  Part="1" 
F 0 "#PWR032" H 3250 4400 50  0001 C CNN
F 1 "GND" H 3255 4477 50  0000 C CNN
F 2 "" H 3250 4650 50  0001 C CNN
F 3 "" H 3250 4650 50  0001 C CNN
	1    3250 4650
	1    0    0    -1  
$EndComp
Wire Wire Line
	3250 4600 3250 4650
Wire Wire Line
	3250 4250 2900 4250
Connection ~ 3250 4250
Text GLabel 2900 4250 0    50   Input ~ 0
SPK_EN
Wire Wire Line
	3750 3450 3750 3650
$Comp
L Device:Ferrite_Bead_Small FB?
U 1 1 5EF8301B
P 4300 3850
AR Path="/5EF8301B" Ref="FB?"  Part="1" 
AR Path="/5EF570ED/5EF8301B" Ref="L1"  Part="1" 
F 0 "L1" V 4150 3900 50  0000 C CNN
F 1 "120" V 4150 3700 50  0000 C CNN
F 2 "Inductor_SMD:L_0805_2012Metric_Pad1.15x1.40mm_HandSolder" V 4230 3850 50  0001 C CNN
F 3 "~" H 4300 3850 50  0001 C CNN
	1    4300 3850
	0    1    1    0   
$EndComp
$Comp
L Device:Ferrite_Bead_Small FB?
U 1 1 5EF83021
P 4300 4050
AR Path="/5EF83021" Ref="FB?"  Part="1" 
AR Path="/5EF570ED/5EF83021" Ref="L2"  Part="1" 
F 0 "L2" V 4450 4100 50  0000 C CNN
F 1 "120" V 4450 3900 50  0000 C CNN
F 2 "Inductor_SMD:L_0805_2012Metric_Pad1.15x1.40mm_HandSolder" V 4230 4050 50  0001 C CNN
F 3 "~" H 4300 4050 50  0001 C CNN
	1    4300 4050
	0    1    1    0   
$EndComp
Wire Wire Line
	4200 3850 4150 3850
Wire Wire Line
	4200 4050 4150 4050
$Comp
L Device:C C?
U 1 1 5EF83029
P 4500 4300
AR Path="/5EF83029" Ref="C?"  Part="1" 
AR Path="/5EF570ED/5EF83029" Ref="C20"  Part="1" 
F 0 "C20" H 4400 4200 50  0000 C CNN
F 1 "220pF" H 4350 4100 50  0000 C CNN
F 2 "Capacitor_SMD:C_0805_2012Metric_Pad1.15x1.40mm_HandSolder" H 4538 4150 50  0001 C CNN
F 3 "~" H 4500 4300 50  0001 C CNN
	1    4500 4300
	1    0    0    -1  
$EndComp
Wire Wire Line
	4500 4050 4500 4150
Connection ~ 4500 4050
Wire Wire Line
	4400 3850 4700 3850
Wire Wire Line
	4700 3850 4700 4150
Connection ~ 4700 3850
Wire Wire Line
	4700 3850 4800 3850
Wire Wire Line
	4700 4450 4700 4550
Wire Wire Line
	4700 4550 4600 4550
Wire Wire Line
	4500 4550 4500 4450
$Comp
L power:GND #PWR?
U 1 1 5EF83038
P 4600 4650
AR Path="/5EF83038" Ref="#PWR?"  Part="1" 
AR Path="/5EF570ED/5EF83038" Ref="#PWR038"  Part="1" 
F 0 "#PWR038" H 4600 4400 50  0001 C CNN
F 1 "GND" H 4605 4477 50  0000 C CNN
F 2 "" H 4600 4650 50  0001 C CNN
F 3 "" H 4600 4650 50  0001 C CNN
	1    4600 4650
	1    0    0    -1  
$EndComp
Wire Wire Line
	4600 4650 4600 4550
Connection ~ 4600 4550
Wire Wire Line
	4600 4550 4500 4550
$Comp
L Device:C C?
U 1 1 5EF83041
P 4700 4300
AR Path="/5EF83041" Ref="C?"  Part="1" 
AR Path="/5EF570ED/5EF83041" Ref="C21"  Part="1" 
F 0 "C21" H 4800 4200 50  0000 C CNN
F 1 "220pF" H 4850 4100 50  0000 C CNN
F 2 "Capacitor_SMD:C_0805_2012Metric_Pad1.15x1.40mm_HandSolder" H 4738 4150 50  0001 C CNN
F 3 "~" H 4700 4300 50  0001 C CNN
	1    4700 4300
	1    0    0    -1  
$EndComp
Wire Wire Line
	4800 4050 4500 4050
$Comp
L Connector:TestPoint TP?
U 1 1 5EF83051
P 4900 6600
AR Path="/5EF83051" Ref="TP?"  Part="1" 
AR Path="/5EF570ED/5EF83051" Ref="TP10"  Part="1" 
F 0 "TP10" V 4900 6788 50  0000 L CNN
F 1 "TestPoint" V 4945 6788 50  0001 L CNN
F 2 "TestPoint:TestPoint_Pad_D1.0mm" H 5100 6600 50  0001 C CNN
F 3 "~" H 5100 6600 50  0001 C CNN
	1    4900 6600
	0    1    1    0   
$EndComp
$Comp
L Device:C C?
U 1 1 5EF9D118
P 5950 4150
AR Path="/5EF9D118" Ref="C?"  Part="1" 
AR Path="/5EF570ED/5EF9D118" Ref="C23"  Part="1" 
F 0 "C23" H 5835 4104 50  0000 R CNN
F 1 "1uF" H 5835 4195 50  0000 R CNN
F 2 "Capacitor_SMD:C_0603_1608Metric_Pad1.05x0.95mm_HandSolder" H 5988 4000 50  0001 C CNN
F 3 "~" H 5950 4150 50  0001 C CNN
	1    5950 4150
	-1   0    0    1   
$EndComp
$Comp
L power:+BATT #PWR?
U 1 1 5EF9D11E
P 3750 3450
AR Path="/5EF9D11E" Ref="#PWR?"  Part="1" 
AR Path="/5EF570ED/5EF9D11E" Ref="#PWR034"  Part="1" 
F 0 "#PWR034" H 3750 3300 50  0001 C CNN
F 1 "+BATT" H 3765 3623 50  0000 C CNN
F 2 "" H 3750 3450 50  0001 C CNN
F 3 "" H 3750 3450 50  0001 C CNN
	1    3750 3450
	1    0    0    -1  
$EndComp
$Comp
L Device:CP C?
U 1 1 5EF9D124
P 6300 4150
AR Path="/5EF9D124" Ref="C?"  Part="1" 
AR Path="/5EF570ED/5EF9D124" Ref="C24"  Part="1" 
F 0 "C24" H 6418 4196 50  0000 L CNN
F 1 "10uF" H 6418 4105 50  0000 L CNN
F 2 "Capacitor_SMD:C_1206_3216Metric_Pad1.42x1.75mm_HandSolder" H 6338 4000 50  0001 C CNN
F 3 "~" H 6300 4150 50  0001 C CNN
	1    6300 4150
	1    0    0    -1  
$EndComp
Wire Wire Line
	6300 4000 6300 3950
$Comp
L power:+BATT #PWR?
U 1 1 5EF9D12B
P 6300 3900
AR Path="/5EF9D12B" Ref="#PWR?"  Part="1" 
AR Path="/5EF570ED/5EF9D12B" Ref="#PWR042"  Part="1" 
F 0 "#PWR042" H 6300 3750 50  0001 C CNN
F 1 "+BATT" H 6315 4073 50  0000 C CNN
F 2 "" H 6300 3900 50  0001 C CNN
F 3 "" H 6300 3900 50  0001 C CNN
	1    6300 3900
	1    0    0    -1  
$EndComp
Wire Wire Line
	6300 3950 5950 3950
Connection ~ 6300 3950
Wire Wire Line
	6300 3950 6300 3900
Wire Wire Line
	5950 3950 5950 4000
$Comp
L Connector:USB_B_Micro J?
U 1 1 5EFCC68F
P 1750 1700
AR Path="/5EFCC68F" Ref="J?"  Part="1" 
AR Path="/5EF570ED/5EFCC68F" Ref="J4"  Part="1" 
F 0 "J4" H 1807 2167 50  0000 C CNN
F 1 "USB_B_Micro" H 1807 2076 50  0000 C CNN
F 2 "miniconsole:USB_Micro-B_Amphenol_10103592-0001LF_Horizontal" H 1900 1650 50  0001 C CNN
F 3 "~" H 1900 1650 50  0001 C CNN
	1    1750 1700
	1    0    0    -1  
$EndComp
Wire Wire Line
	2050 1700 2200 1700
Wire Wire Line
	2050 1800 2200 1800
$Comp
L power:GND #PWR?
U 1 1 5EFCC697
P 1750 2350
AR Path="/5EFCC697" Ref="#PWR?"  Part="1" 
AR Path="/5EF570ED/5EFCC697" Ref="#PWR024"  Part="1" 
F 0 "#PWR024" H 1750 2100 50  0001 C CNN
F 1 "GND" H 1755 2177 50  0000 C CNN
F 2 "" H 1750 2350 50  0001 C CNN
F 3 "" H 1750 2350 50  0001 C CNN
	1    1750 2350
	1    0    0    -1  
$EndComp
$Comp
L power:VBUS #PWR?
U 1 1 5EFCC69E
P 2700 1350
AR Path="/5EFCC69E" Ref="#PWR?"  Part="1" 
AR Path="/5EF570ED/5EFCC69E" Ref="#PWR025"  Part="1" 
F 0 "#PWR025" H 2700 1200 50  0001 C CNN
F 1 "VBUS" H 2715 1523 50  0000 C CNN
F 2 "" H 2700 1350 50  0001 C CNN
F 3 "" H 2700 1350 50  0001 C CNN
	1    2700 1350
	1    0    0    -1  
$EndComp
$Comp
L power:+3V3 #PWR?
U 1 1 5EFCC6A4
P 6150 1250
AR Path="/5EFCC6A4" Ref="#PWR?"  Part="1" 
AR Path="/5EF570ED/5EFCC6A4" Ref="#PWR039"  Part="1" 
F 0 "#PWR039" H 6150 1100 50  0001 C CNN
F 1 "+3V3" H 6165 1423 50  0000 C CNN
F 2 "" H 6150 1250 50  0001 C CNN
F 3 "" H 6150 1250 50  0001 C CNN
	1    6150 1250
	1    0    0    -1  
$EndComp
Wire Wire Line
	5400 1800 5400 2350
$Comp
L power:GND #PWR?
U 1 1 5EFCC6AB
P 5400 2350
AR Path="/5EFCC6AB" Ref="#PWR?"  Part="1" 
AR Path="/5EF570ED/5EFCC6AB" Ref="#PWR036"  Part="1" 
F 0 "#PWR036" H 5400 2100 50  0001 C CNN
F 1 "GND" H 5405 2177 50  0000 C CNN
F 2 "" H 5400 2350 50  0001 C CNN
F 3 "" H 5400 2350 50  0001 C CNN
	1    5400 2350
	1    0    0    -1  
$EndComp
$Comp
L power:+BATT #PWR?
U 1 1 5EFCC6B1
P 4200 1250
AR Path="/5EFCC6B1" Ref="#PWR?"  Part="1" 
AR Path="/5EF570ED/5EFCC6B1" Ref="#PWR029"  Part="1" 
F 0 "#PWR029" H 4200 1100 50  0001 C CNN
F 1 "+BATT" H 4215 1423 50  0000 C CNN
F 2 "" H 4200 1250 50  0001 C CNN
F 3 "" H 4200 1250 50  0001 C CNN
	1    4200 1250
	1    0    0    -1  
$EndComp
$Comp
L Device:R R?
U 1 1 5EFCC6B7
P 4900 1650
AR Path="/5EFCC6B7" Ref="R?"  Part="1" 
AR Path="/5EF570ED/5EFCC6B7" Ref="R16"  Part="1" 
F 0 "R16" H 4830 1604 50  0000 R CNN
F 1 "10K" H 4830 1695 50  0000 R CNN
F 2 "Resistor_SMD:R_0603_1608Metric_Pad1.05x0.95mm_HandSolder" V 4830 1650 50  0001 C CNN
F 3 "~" H 4900 1650 50  0001 C CNN
	1    4900 1650
	-1   0    0    1   
$EndComp
$Comp
L Device:R R?
U 1 1 5EFCC6BD
P 4900 2100
AR Path="/5EFCC6BD" Ref="R?"  Part="1" 
AR Path="/5EF570ED/5EFCC6BD" Ref="R17"  Part="1" 
F 0 "R17" H 4830 2054 50  0000 R CNN
F 1 "10K" H 4830 2145 50  0000 R CNN
F 2 "Resistor_SMD:R_0603_1608Metric_Pad1.05x0.95mm_HandSolder" V 4830 2100 50  0001 C CNN
F 3 "~" H 4900 2100 50  0001 C CNN
	1    4900 2100
	-1   0    0    1   
$EndComp
Wire Wire Line
	4900 1800 4900 1850
Wire Wire Line
	4900 1400 4900 1500
Wire Wire Line
	4900 2250 4900 2350
$Comp
L power:GND #PWR?
U 1 1 5EFCC6C6
P 4900 2350
AR Path="/5EFCC6C6" Ref="#PWR?"  Part="1" 
AR Path="/5EF570ED/5EFCC6C6" Ref="#PWR033"  Part="1" 
F 0 "#PWR033" H 4900 2100 50  0001 C CNN
F 1 "GND" H 4905 2177 50  0000 C CNN
F 2 "" H 4900 2350 50  0001 C CNN
F 3 "" H 4900 2350 50  0001 C CNN
	1    4900 2350
	1    0    0    -1  
$EndComp
Wire Wire Line
	4900 1850 5200 1850
Connection ~ 4900 1850
Wire Wire Line
	4900 1850 4900 1950
Wire Wire Line
	5800 1400 5800 1550
$Comp
L power:GND #PWR?
U 1 1 5EFCC6D0
P 5800 2350
AR Path="/5EFCC6D0" Ref="#PWR?"  Part="1" 
AR Path="/5EF570ED/5EFCC6D0" Ref="#PWR037"  Part="1" 
F 0 "#PWR037" H 5800 2100 50  0001 C CNN
F 1 "GND" H 5805 2177 50  0000 C CNN
F 2 "" H 5800 2350 50  0001 C CNN
F 3 "" H 5800 2350 50  0001 C CNN
	1    5800 2350
	1    0    0    -1  
$EndComp
Wire Wire Line
	5800 1850 5800 2350
Wire Wire Line
	4600 1400 4600 1550
$Comp
L power:GND #PWR?
U 1 1 5EFCC6D8
P 4600 2350
AR Path="/5EFCC6D8" Ref="#PWR?"  Part="1" 
AR Path="/5EF570ED/5EFCC6D8" Ref="#PWR031"  Part="1" 
F 0 "#PWR031" H 4600 2100 50  0001 C CNN
F 1 "GND" H 4605 2177 50  0000 C CNN
F 2 "" H 4600 2350 50  0001 C CNN
F 3 "" H 4600 2350 50  0001 C CNN
	1    4600 2350
	1    0    0    -1  
$EndComp
Text GLabel 2200 1700 2    50   BiDi ~ 0
USB_D+
Text GLabel 2200 1800 2    50   BiDi ~ 0
USB_D-
$Comp
L Device:C C?
U 1 1 5EFCC6E0
P 5800 1700
AR Path="/5EFCC6E0" Ref="C?"  Part="1" 
AR Path="/5EF570ED/5EFCC6E0" Ref="C19"  Part="1" 
F 0 "C19" H 5915 1746 50  0000 L CNN
F 1 "1uF" H 5915 1655 50  0000 L CNN
F 2 "Capacitor_SMD:C_0603_1608Metric_Pad1.05x0.95mm_HandSolder" H 5838 1550 50  0001 C CNN
F 3 "~" H 5800 1700 50  0001 C CNN
	1    5800 1700
	1    0    0    -1  
$EndComp
$Comp
L Device:C C?
U 1 1 5EFCC6E6
P 4600 1700
AR Path="/5EFCC6E6" Ref="C?"  Part="1" 
AR Path="/5EF570ED/5EFCC6E6" Ref="C18"  Part="1" 
F 0 "C18" H 4715 1746 50  0000 L CNN
F 1 "1uF" H 4715 1655 50  0000 L CNN
F 2 "Capacitor_SMD:C_0603_1608Metric_Pad1.05x0.95mm_HandSolder" H 4638 1550 50  0001 C CNN
F 3 "~" H 4600 1700 50  0001 C CNN
	1    4600 1700
	1    0    0    -1  
$EndComp
$Comp
L Device:C C?
U 1 1 5EFCC6EC
P 4200 1700
AR Path="/5EFCC6EC" Ref="C?"  Part="1" 
AR Path="/5EF570ED/5EFCC6EC" Ref="C17"  Part="1" 
F 0 "C17" H 4315 1746 50  0000 L CNN
F 1 "0.1uF" H 4315 1655 50  0000 L CNN
F 2 "Capacitor_SMD:C_0603_1608Metric_Pad1.05x0.95mm_HandSolder" H 4238 1550 50  0001 C CNN
F 3 "~" H 4200 1700 50  0001 C CNN
	1    4200 1700
	1    0    0    -1  
$EndComp
$Comp
L Device:C C?
U 1 1 5EFCC6F2
P 6150 1700
AR Path="/5EFCC6F2" Ref="C?"  Part="1" 
AR Path="/5EF570ED/5EFCC6F2" Ref="C22"  Part="1" 
F 0 "C22" H 6265 1746 50  0000 L CNN
F 1 "0.1uF" H 6265 1655 50  0000 L CNN
F 2 "Capacitor_SMD:C_0603_1608Metric_Pad1.05x0.95mm_HandSolder" H 6188 1550 50  0001 C CNN
F 3 "~" H 6150 1700 50  0001 C CNN
	1    6150 1700
	1    0    0    -1  
$EndComp
Wire Wire Line
	5800 1400 6150 1400
Wire Wire Line
	6150 1400 6150 1550
Wire Wire Line
	6150 1850 6150 2350
$Comp
L power:GND #PWR?
U 1 1 5EFCC6FB
P 6150 2350
AR Path="/5EFCC6FB" Ref="#PWR?"  Part="1" 
AR Path="/5EF570ED/5EFCC6FB" Ref="#PWR040"  Part="1" 
F 0 "#PWR040" H 6150 2100 50  0001 C CNN
F 1 "GND" H 6155 2177 50  0000 C CNN
F 2 "" H 6150 2350 50  0001 C CNN
F 3 "" H 6150 2350 50  0001 C CNN
	1    6150 2350
	1    0    0    -1  
$EndComp
Wire Wire Line
	6150 1250 6150 1400
Connection ~ 6150 1400
Text GLabel 5200 2000 3    50   Output ~ 0
BATSENSE
Wire Wire Line
	5200 1850 5200 2000
Wire Wire Line
	4200 1400 4200 1550
Wire Wire Line
	4600 1850 4600 2350
$Comp
L power:GND #PWR?
U 1 1 5EFCC707
P 4200 2350
AR Path="/5EFCC707" Ref="#PWR?"  Part="1" 
AR Path="/5EF570ED/5EFCC707" Ref="#PWR030"  Part="1" 
F 0 "#PWR030" H 4200 2100 50  0001 C CNN
F 1 "GND" H 4205 2177 50  0000 C CNN
F 2 "" H 4200 2350 50  0001 C CNN
F 3 "" H 4200 2350 50  0001 C CNN
	1    4200 2350
	1    0    0    -1  
$EndComp
Wire Wire Line
	4200 1850 4200 2350
Connection ~ 4600 1400
Wire Wire Line
	4600 1400 4900 1400
Wire Wire Line
	4200 1250 4200 1400
Wire Wire Line
	2700 1350 2700 1500
Wire Wire Line
	2700 1500 2700 1650
Connection ~ 2700 1500
$Comp
L Device:CP C?
U 1 1 5EFCC714
P 2700 1800
AR Path="/5EFCC714" Ref="C?"  Part="1" 
AR Path="/5EF570ED/5EFCC714" Ref="C13"  Part="1" 
F 0 "C13" H 2818 1846 50  0000 L CNN
F 1 "4.7uF" H 2818 1755 50  0000 L CNN
F 2 "Capacitor_SMD:C_0805_2012Metric_Pad1.15x1.40mm_HandSolder" H 2738 1650 50  0001 C CNN
F 3 "~" H 2700 1800 50  0001 C CNN
	1    2700 1800
	1    0    0    -1  
$EndComp
$Comp
L power:GND #PWR?
U 1 1 5EFCC71A
P 2700 2350
AR Path="/5EFCC71A" Ref="#PWR?"  Part="1" 
AR Path="/5EF570ED/5EFCC71A" Ref="#PWR026"  Part="1" 
F 0 "#PWR026" H 2700 2100 50  0001 C CNN
F 1 "GND" H 2705 2177 50  0000 C CNN
F 2 "" H 2700 2350 50  0001 C CNN
F 3 "" H 2700 2350 50  0001 C CNN
	1    2700 2350
	1    0    0    -1  
$EndComp
Wire Wire Line
	2700 1950 2700 2350
$Comp
L Regulator_Linear:AP2127K-3.3 U?
U 1 1 5EFCC721
P 5400 1500
AR Path="/5EFCC721" Ref="U?"  Part="1" 
AR Path="/5EF570ED/5EFCC721" Ref="U3"  Part="1" 
F 0 "U3" H 5400 1842 50  0000 C CNN
F 1 "AP2127K-3.3" H 5400 1751 50  0000 C CNN
F 2 "Package_TO_SOT_SMD:SOT-23-5" H 5400 1825 50  0001 C CNN
F 3 "https://www.diodes.com/assets/Datasheets/AP2127.pdf" H 5400 1600 50  0001 C CNN
	1    5400 1500
	1    0    0    -1  
$EndComp
Wire Wire Line
	5100 1400 5000 1400
Connection ~ 4900 1400
Wire Wire Line
	5800 1400 5700 1400
Connection ~ 5800 1400
Wire Wire Line
	5100 1500 5000 1500
Wire Wire Line
	5000 1500 5000 1400
Connection ~ 5000 1400
Wire Wire Line
	5000 1400 4900 1400
$Comp
L Device:C C?
U 1 1 5EFCC72F
P 3100 1800
AR Path="/5EFCC72F" Ref="C?"  Part="1" 
AR Path="/5EF570ED/5EFCC72F" Ref="C14"  Part="1" 
F 0 "C14" H 3215 1846 50  0000 L CNN
F 1 "0.1uF" H 3215 1755 50  0000 L CNN
F 2 "Capacitor_SMD:C_0603_1608Metric_Pad1.05x0.95mm_HandSolder" H 3138 1650 50  0001 C CNN
F 3 "~" H 3100 1800 50  0001 C CNN
	1    3100 1800
	1    0    0    -1  
$EndComp
Wire Wire Line
	2700 1500 3100 1500
Wire Wire Line
	3100 1500 3100 1650
Wire Wire Line
	3100 1950 3100 2350
$Comp
L power:GND #PWR?
U 1 1 5EFCC738
P 3100 2350
AR Path="/5EFCC738" Ref="#PWR?"  Part="1" 
AR Path="/5EF570ED/5EFCC738" Ref="#PWR027"  Part="1" 
F 0 "#PWR027" H 3100 2100 50  0001 C CNN
F 1 "GND" H 3105 2177 50  0000 C CNN
F 2 "" H 3100 2350 50  0001 C CNN
F 3 "" H 3100 2350 50  0001 C CNN
	1    3100 2350
	1    0    0    -1  
$EndComp
Connection ~ 4200 1400
Wire Wire Line
	4200 1400 4600 1400
Wire Wire Line
	1750 2100 1750 2350
$Comp
L Device:C C?
U 1 1 5EFCC741
P 1450 2300
AR Path="/5EFCC741" Ref="C?"  Part="1" 
AR Path="/5EF570ED/5EFCC741" Ref="C12"  Part="1" 
F 0 "C12" H 1565 2346 50  0000 L CNN
F 1 "0.1uF" H 1565 2255 50  0000 L CNN
F 2 "Capacitor_SMD:C_0603_1608Metric_Pad1.05x0.95mm_HandSolder" H 1488 2150 50  0001 C CNN
F 3 "~" H 1450 2300 50  0001 C CNN
	1    1450 2300
	1    0    0    -1  
$EndComp
Wire Wire Line
	1650 2100 1650 2150
Wire Wire Line
	1650 2150 1450 2150
Wire Wire Line
	1450 2450 1450 2500
$Comp
L power:GND #PWR?
U 1 1 5EFCC74A
P 1450 2500
AR Path="/5EFCC74A" Ref="#PWR?"  Part="1" 
AR Path="/5EF570ED/5EFCC74A" Ref="#PWR023"  Part="1" 
F 0 "#PWR023" H 1450 2250 50  0001 C CNN
F 1 "GND" H 1455 2327 50  0000 C CNN
F 2 "" H 1450 2500 50  0001 C CNN
F 3 "" H 1450 2500 50  0001 C CNN
	1    1450 2500
	1    0    0    -1  
$EndComp
NoConn ~ 2050 1900
$Comp
L Battery_Management:MCP73831-2-OT U?
U 1 1 5EFF291C
P 7900 1850
AR Path="/5EFF291C" Ref="U?"  Part="1" 
AR Path="/5EF570ED/5EFF291C" Ref="U4"  Part="1" 
F 0 "U4" H 8100 2150 50  0000 C CNN
F 1 "MCP73831-2-OT" H 7500 2150 50  0000 C CNN
F 2 "Package_TO_SOT_SMD:SOT-23-5" H 7950 1600 50  0001 L CIN
F 3 "http://ww1.microchip.com/downloads/en/DeviceDoc/20001984g.pdf" H 7750 1800 50  0001 C CNN
	1    7900 1850
	1    0    0    -1  
$EndComp
Wire Wire Line
	7900 2150 7900 2350
$Comp
L power:GND #PWR?
U 1 1 5EFF2923
P 7900 2350
AR Path="/5EFF2923" Ref="#PWR?"  Part="1" 
AR Path="/5EF570ED/5EFF2923" Ref="#PWR047"  Part="1" 
F 0 "#PWR047" H 7900 2100 50  0001 C CNN
F 1 "GND" H 7905 2177 50  0000 C CNN
F 2 "" H 7900 2350 50  0001 C CNN
F 3 "" H 7900 2350 50  0001 C CNN
	1    7900 2350
	1    0    0    -1  
$EndComp
$Comp
L Device:R R?
U 1 1 5EFF2929
P 7300 2150
AR Path="/5EFF2929" Ref="R?"  Part="1" 
AR Path="/5EF570ED/5EFF2929" Ref="R18"  Part="1" 
F 0 "R18" H 7230 2104 50  0000 R CNN
F 1 "2.2K" H 7230 2195 50  0000 R CNN
F 2 "Resistor_SMD:R_0603_1608Metric_Pad1.05x0.95mm_HandSolder" V 7230 2150 50  0001 C CNN
F 3 "~" H 7300 2150 50  0001 C CNN
	1    7300 2150
	-1   0    0    1   
$EndComp
Wire Wire Line
	7500 1950 7300 1950
Wire Wire Line
	7300 1950 7300 2000
Wire Wire Line
	7300 2300 7300 2350
$Comp
L power:GND #PWR?
U 1 1 5EFF2932
P 7300 2350
AR Path="/5EFF2932" Ref="#PWR?"  Part="1" 
AR Path="/5EF570ED/5EFF2932" Ref="#PWR041"  Part="1" 
F 0 "#PWR041" H 7300 2100 50  0001 C CNN
F 1 "GND" H 7305 2177 50  0000 C CNN
F 2 "" H 7300 2350 50  0001 C CNN
F 3 "" H 7300 2350 50  0001 C CNN
	1    7300 2350
	1    0    0    -1  
$EndComp
Text GLabel 8450 2050 3    50   Output ~ 0
CHG_STAT
$Comp
L Device:CP C?
U 1 1 5EFF2939
P 8750 2050
AR Path="/5EFF2939" Ref="C?"  Part="1" 
AR Path="/5EF570ED/5EFF2939" Ref="C26"  Part="1" 
F 0 "C26" H 8868 2096 50  0000 L CNN
F 1 "4.7uF" H 8868 2005 50  0000 L CNN
F 2 "Capacitor_SMD:C_0805_2012Metric_Pad1.15x1.40mm_HandSolder" H 8788 1900 50  0001 C CNN
F 3 "~" H 8750 2050 50  0001 C CNN
	1    8750 2050
	1    0    0    -1  
$EndComp
$Comp
L power:+BATT #PWR?
U 1 1 5EFF293F
P 9600 1350
AR Path="/5EFF293F" Ref="#PWR?"  Part="1" 
AR Path="/5EF570ED/5EFF293F" Ref="#PWR053"  Part="1" 
F 0 "#PWR053" H 9600 1200 50  0001 C CNN
F 1 "+BATT" H 9615 1523 50  0000 C CNN
F 2 "" H 9600 1350 50  0001 C CNN
F 3 "" H 9600 1350 50  0001 C CNN
	1    9600 1350
	0    1    1    0   
$EndComp
$Comp
L power:GND #PWR?
U 1 1 5EFF2945
P 9100 2350
AR Path="/5EFF2945" Ref="#PWR?"  Part="1" 
AR Path="/5EF570ED/5EFF2945" Ref="#PWR051"  Part="1" 
F 0 "#PWR051" H 9100 2100 50  0001 C CNN
F 1 "GND" H 9105 2177 50  0000 C CNN
F 2 "" H 9100 2350 50  0001 C CNN
F 3 "" H 9100 2350 50  0001 C CNN
	1    9100 2350
	1    0    0    -1  
$EndComp
$Comp
L power:GND #PWR?
U 1 1 5EFF294B
P 8750 2350
AR Path="/5EFF294B" Ref="#PWR?"  Part="1" 
AR Path="/5EF570ED/5EFF294B" Ref="#PWR050"  Part="1" 
F 0 "#PWR050" H 8750 2100 50  0001 C CNN
F 1 "GND" H 8755 2177 50  0000 C CNN
F 2 "" H 8750 2350 50  0001 C CNN
F 3 "" H 8750 2350 50  0001 C CNN
	1    8750 2350
	1    0    0    -1  
$EndComp
Wire Wire Line
	8750 2200 8750 2350
Wire Wire Line
	8300 1950 8450 1950
Wire Wire Line
	8450 1950 8450 2050
Wire Wire Line
	9600 1350 9500 1350
Wire Wire Line
	8900 1450 8900 1750
Connection ~ 8900 1750
Wire Wire Line
	8900 1750 9200 1750
$Comp
L power:VBUS #PWR?
U 1 1 5EFF2958
P 7900 1450
AR Path="/5EFF2958" Ref="#PWR?"  Part="1" 
AR Path="/5EF570ED/5EFF2958" Ref="#PWR046"  Part="1" 
F 0 "#PWR046" H 7900 1300 50  0001 C CNN
F 1 "VBUS" H 7915 1623 50  0000 C CNN
F 2 "" H 7900 1450 50  0001 C CNN
F 3 "" H 7900 1450 50  0001 C CNN
	1    7900 1450
	1    0    0    -1  
$EndComp
$Comp
L Switch:SW_SPDT SW?
U 1 1 5EFF295E
P 9250 1350
AR Path="/5EFF295E" Ref="SW?"  Part="1" 
AR Path="/5EF570ED/5EFF295E" Ref="SW10"  Part="1" 
F 0 "SW10" H 9400 1100 50  0000 C CNN
F 1 "SW_SPDT" H 9050 1100 50  0000 C CNN
F 2 "miniconsole:switch_slide_dpst_Nidec_Copal_CSS-1210B" H 9250 1350 50  0001 C CNN
F 3 "~" H 9250 1350 50  0001 C CNN
	1    9250 1350
	-1   0    0    -1  
$EndComp
Wire Wire Line
	8750 1750 8750 1900
Connection ~ 8750 1750
Wire Wire Line
	8750 1750 8900 1750
Wire Wire Line
	8900 1450 9050 1450
$Comp
L Connector_Generic:Conn_01x03 J?
U 1 1 5EFF2968
P 9400 1850
AR Path="/5EFF2968" Ref="J?"  Part="1" 
AR Path="/5EF570ED/5EFF2968" Ref="J5"  Part="1" 
F 0 "J5" H 9480 1892 50  0000 L CNN
F 1 "Conn_01x03" H 9480 1801 50  0000 L CNN
F 2 "miniconsole:3pin-batt" H 9400 1850 50  0001 C CNN
F 3 "~" H 9400 1850 50  0001 C CNN
	1    9400 1850
	1    0    0    1   
$EndComp
NoConn ~ 9200 1850
NoConn ~ 9050 1250
Wire Wire Line
	9200 1950 9100 1950
Wire Wire Line
	9100 1950 9100 2200
$Comp
L power:PWR_FLAG #FLG?
U 1 1 5EFF2972
P 9500 1300
AR Path="/5EFF2972" Ref="#FLG?"  Part="1" 
AR Path="/5EF570ED/5EFF2972" Ref="#FLG02"  Part="1" 
F 0 "#FLG02" H 9500 1375 50  0001 C CNN
F 1 "PWR_FLAG" H 9500 1473 50  0000 C CNN
F 2 "" H 9500 1300 50  0001 C CNN
F 3 "~" H 9500 1300 50  0001 C CNN
	1    9500 1300
	1    0    0    -1  
$EndComp
Wire Wire Line
	9500 1300 9500 1350
Connection ~ 9500 1350
Wire Wire Line
	9500 1350 9450 1350
Wire Wire Line
	7900 1450 7900 1550
Wire Wire Line
	8300 1750 8750 1750
Wire Wire Line
	8450 4150 8650 4150
Wire Wire Line
	8450 4250 8650 4250
Wire Wire Line
	8450 4350 8650 4350
Wire Wire Line
	8450 4050 8650 4050
$Comp
L power:GND #PWR?
U 1 1 5F01946F
P 8950 5700
AR Path="/5F01946F" Ref="#PWR?"  Part="1" 
AR Path="/5EF570ED/5F01946F" Ref="#PWR054"  Part="1" 
F 0 "#PWR054" H 8950 5450 50  0001 C CNN
F 1 "GND" H 8955 5527 50  0000 C CNN
F 2 "" H 8950 5700 50  0001 C CNN
F 3 "" H 8950 5700 50  0001 C CNN
	1    8950 5700
	1    0    0    -1  
$EndComp
Wire Wire Line
	8950 5400 8950 5700
Text GLabel 8650 4050 2    50   Input ~ 0
DISP_CS
Text GLabel 8650 4350 2    50   Input ~ 0
DISP_DC
Wire Wire Line
	9400 5200 9300 5200
$Comp
L Device:R R?
U 1 1 5F01947C
P 9550 5200
AR Path="/5F01947C" Ref="R?"  Part="1" 
AR Path="/5EF570ED/5F01947C" Ref="R22"  Part="1" 
F 0 "R22" V 9343 5200 50  0000 C CNN
F 1 "100" V 9434 5200 50  0000 C CNN
F 2 "Resistor_SMD:R_0603_1608Metric_Pad1.05x0.95mm_HandSolder" V 9480 5200 50  0001 C CNN
F 3 "~" H 9550 5200 50  0001 C CNN
	1    9550 5200
	0    1    1    0   
$EndComp
Text GLabel 8650 4450 2    50   Input ~ 0
DISP_RST
Text GLabel 8650 4250 2    50   Input ~ 0
DISP_MOSI
Text GLabel 8650 4150 2    50   Input ~ 0
DISP_SCK
$Comp
L Device:R R?
U 1 1 5F019485
P 9300 5450
AR Path="/5F019485" Ref="R?"  Part="1" 
AR Path="/5EF570ED/5F019485" Ref="R21"  Part="1" 
F 0 "R21" H 9230 5404 50  0000 R CNN
F 1 "47K" H 9230 5495 50  0000 R CNN
F 2 "Resistor_SMD:R_0603_1608Metric_Pad1.05x0.95mm_HandSolder" V 9230 5450 50  0001 C CNN
F 3 "~" H 9300 5450 50  0001 C CNN
	1    9300 5450
	-1   0    0    1   
$EndComp
Wire Wire Line
	9300 5200 9300 5300
Connection ~ 9300 5200
Wire Wire Line
	9300 5200 9250 5200
$Comp
L power:GND #PWR?
U 1 1 5F01948E
P 9300 5700
AR Path="/5F01948E" Ref="#PWR?"  Part="1" 
AR Path="/5EF570ED/5F01948E" Ref="#PWR055"  Part="1" 
F 0 "#PWR055" H 9300 5450 50  0001 C CNN
F 1 "GND" H 9305 5527 50  0000 C CNN
F 2 "" H 9300 5700 50  0001 C CNN
F 3 "" H 9300 5700 50  0001 C CNN
	1    9300 5700
	1    0    0    -1  
$EndComp
Wire Wire Line
	9300 5600 9300 5700
Wire Wire Line
	8450 4450 8550 4450
$Comp
L Device:R R?
U 1 1 5F019496
P 8550 3800
AR Path="/5F019496" Ref="R?"  Part="1" 
AR Path="/5EF570ED/5F019496" Ref="R19"  Part="1" 
F 0 "R19" H 8480 3754 50  0000 R CNN
F 1 "47K" H 8480 3845 50  0000 R CNN
F 2 "Resistor_SMD:R_0603_1608Metric_Pad1.05x0.95mm_HandSolder" V 8480 3800 50  0001 C CNN
F 3 "~" H 8550 3800 50  0001 C CNN
	1    8550 3800
	-1   0    0    1   
$EndComp
Wire Wire Line
	8450 4650 8600 4650
$Comp
L Device:R R?
U 1 1 5F01949E
P 8750 4650
AR Path="/5F01949E" Ref="R?"  Part="1" 
AR Path="/5EF570ED/5F01949E" Ref="R20"  Part="1" 
F 0 "R20" V 8850 4500 50  0000 C CNN
F 1 "10" V 8850 4700 50  0000 C CNN
F 2 "Resistor_SMD:R_0603_1608Metric_Pad1.05x0.95mm_HandSolder" V 8680 4650 50  0001 C CNN
F 3 "~" H 8750 4650 50  0001 C CNN
	1    8750 4650
	0    -1   -1   0   
$EndComp
Wire Wire Line
	8900 4650 8950 4650
$Comp
L power:+3V3 #PWR?
U 1 1 5F0194A5
P 8950 4650
AR Path="/5F0194A5" Ref="#PWR?"  Part="1" 
AR Path="/5EF570ED/5F0194A5" Ref="#PWR052"  Part="1" 
F 0 "#PWR052" H 8950 4500 50  0001 C CNN
F 1 "+3V3" V 8965 4778 50  0000 L CNN
F 2 "" H 8950 4650 50  0001 C CNN
F 3 "" H 8950 4650 50  0001 C CNN
	1    8950 4650
	0    1    1    0   
$EndComp
$Comp
L miniconsole:spi_lcd14 U?
U 1 1 5F0194AB
P 8150 4450
AR Path="/5F0194AB" Ref="U?"  Part="1" 
AR Path="/5EF570ED/5F0194AB" Ref="U5"  Part="1" 
F 0 "U5" H 7800 3950 50  0000 L CNN
F 1 "spi_lcd14" H 7550 3850 50  0000 L CNN
F 2 "miniconsole:LCD14" H 7850 4950 50  0001 C CNN
F 3 "" H 7850 4950 50  0001 C CNN
	1    8150 4450
	-1   0    0    -1  
$EndComp
Wire Wire Line
	8050 5150 8050 5250
Wire Wire Line
	8050 5250 8150 5250
Wire Wire Line
	8250 5250 8250 5150
Wire Wire Line
	8150 5150 8150 5250
Connection ~ 8150 5250
Wire Wire Line
	8150 5250 8250 5250
Wire Wire Line
	8150 5250 8150 5350
Wire Wire Line
	8100 3650 8100 3550
Wire Wire Line
	8100 3550 8200 3550
Wire Wire Line
	8200 3550 8200 3650
Wire Wire Line
	8200 3550 8200 3450
Connection ~ 8200 3550
$Comp
L power:+3V3 #PWR?
U 1 1 5F0194BD
P 8200 3450
AR Path="/5F0194BD" Ref="#PWR?"  Part="1" 
AR Path="/5EF570ED/5F0194BD" Ref="#PWR049"  Part="1" 
F 0 "#PWR049" H 8200 3300 50  0001 C CNN
F 1 "+3V3" H 8215 3623 50  0000 C CNN
F 2 "" H 8200 3450 50  0001 C CNN
F 3 "" H 8200 3450 50  0001 C CNN
	1    8200 3450
	1    0    0    -1  
$EndComp
$Comp
L power:GND #PWR?
U 1 1 5F0194C3
P 8150 5350
AR Path="/5F0194C3" Ref="#PWR?"  Part="1" 
AR Path="/5EF570ED/5F0194C3" Ref="#PWR048"  Part="1" 
F 0 "#PWR048" H 8150 5100 50  0001 C CNN
F 1 "GND" H 8155 5177 50  0000 C CNN
F 2 "" H 8150 5350 50  0001 C CNN
F 3 "" H 8150 5350 50  0001 C CNN
	1    8150 5350
	1    0    0    -1  
$EndComp
Wire Wire Line
	8550 3950 8550 4450
Connection ~ 8550 4450
Wire Wire Line
	8550 4450 8650 4450
Wire Wire Line
	8550 3650 8550 3550
Wire Wire Line
	8550 3550 8200 3550
$Comp
L Device:Q_NMOS_GSD Q?
U 1 1 5F0194CE
P 9050 5200
AR Path="/5F0194CE" Ref="Q?"  Part="1" 
AR Path="/5EF570ED/5F0194CE" Ref="Q1"  Part="1" 
F 0 "Q1" H 9000 5400 50  0000 L CNN
F 1 "Q_NMOS_GSD" H 8600 5500 50  0000 L CNN
F 2 "Package_TO_SOT_SMD:SOT-23" H 9250 5300 50  0001 C CNN
F 3 "~" H 9050 5200 50  0001 C CNN
	1    9050 5200
	-1   0    0    -1  
$EndComp
Text GLabel 9850 5200 2    50   Input ~ 0
DISP_PWM
Wire Wire Line
	9700 5200 9850 5200
$Comp
L Device:C C?
U 1 1 5F0605F1
P 9800 4100
AR Path="/5F0605F1" Ref="C?"  Part="1" 
AR Path="/5EF570ED/5F0605F1" Ref="C25"  Part="1" 
F 0 "C25" H 9685 4054 50  0000 R CNN
F 1 "0.1uF" H 9685 4145 50  0000 R CNN
F 2 "Capacitor_SMD:C_0603_1608Metric_Pad1.05x0.95mm_HandSolder" H 9838 3950 50  0001 C CNN
F 3 "~" H 9800 4100 50  0001 C CNN
	1    9800 4100
	-1   0    0    1   
$EndComp
$Comp
L power:+3V3 #PWR?
U 1 1 5F0605F7
P 9800 3850
AR Path="/5F0605F7" Ref="#PWR?"  Part="1" 
AR Path="/5EF570ED/5F0605F7" Ref="#PWR044"  Part="1" 
F 0 "#PWR044" H 9800 3700 50  0001 C CNN
F 1 "+3V3" H 9815 4023 50  0000 C CNN
F 2 "" H 9800 3850 50  0001 C CNN
F 3 "" H 9800 3850 50  0001 C CNN
	1    9800 3850
	1    0    0    -1  
$EndComp
Wire Wire Line
	9800 3850 9800 3950
Wire Wire Line
	9800 4250 9800 4350
$Comp
L power:GND #PWR?
U 1 1 5F0605FF
P 9800 4350
AR Path="/5F0605FF" Ref="#PWR?"  Part="1" 
AR Path="/5EF570ED/5F0605FF" Ref="#PWR045"  Part="1" 
F 0 "#PWR045" H 9800 4100 50  0001 C CNN
F 1 "GND" H 9805 4177 50  0000 C CNN
F 2 "" H 9800 4350 50  0001 C CNN
F 3 "" H 9800 4350 50  0001 C CNN
	1    9800 4350
	1    0    0    -1  
$EndComp
Wire Wire Line
	8950 4750 8950 5000
Wire Wire Line
	8450 4750 8950 4750
$Comp
L Device:R R?
U 1 1 5F257BD1
P 3600 6400
AR Path="/5F257BD1" Ref="R?"  Part="1" 
AR Path="/5EF570ED/5F257BD1" Ref="R23"  Part="1" 
F 0 "R23" V 3350 6450 50  0000 C CNN
F 1 "10K" V 3450 6450 50  0000 C CNN
F 2 "Resistor_SMD:R_0603_1608Metric_Pad1.05x0.95mm_HandSolder" V 3530 6400 50  0001 C CNN
F 3 "~" H 3600 6400 50  0001 C CNN
	1    3600 6400
	0    -1   -1   0   
$EndComp
$Comp
L Device:R R?
U 1 1 5F257F91
P 2900 5750
AR Path="/5F257F91" Ref="R?"  Part="1" 
AR Path="/5EF570ED/5F257F91" Ref="R24"  Part="1" 
F 0 "R24" V 3100 5750 50  0000 C CNN
F 1 "10K" V 3000 5750 50  0000 C CNN
F 2 "Resistor_SMD:R_0603_1608Metric_Pad1.05x0.95mm_HandSolder" V 2830 5750 50  0001 C CNN
F 3 "~" H 2900 5750 50  0001 C CNN
	1    2900 5750
	0    -1   -1   0   
$EndComp
$Comp
L power:GND #PWR?
U 1 1 5F2610D5
P 5450 6550
AR Path="/5F2610D5" Ref="#PWR?"  Part="1" 
AR Path="/5EF570ED/5F2610D5" Ref="#PWR056"  Part="1" 
F 0 "#PWR056" H 5450 6300 50  0001 C CNN
F 1 "GND" H 5455 6377 50  0000 C CNN
F 2 "" H 5450 6550 50  0001 C CNN
F 3 "" H 5450 6550 50  0001 C CNN
	1    5450 6550
	-1   0    0    -1  
$EndComp
$Comp
L Device:CP C?
U 1 1 5F2909F3
P 6700 4150
AR Path="/5F2909F3" Ref="C?"  Part="1" 
AR Path="/5EF570ED/5F2909F3" Ref="C27"  Part="1" 
F 0 "C27" H 6818 4196 50  0000 L CNN
F 1 "10uF" H 6818 4105 50  0000 L CNN
F 2 "Capacitor_SMD:C_1206_3216Metric_Pad1.42x1.75mm_HandSolder" H 6738 4000 50  0001 C CNN
F 3 "~" H 6700 4150 50  0001 C CNN
	1    6700 4150
	1    0    0    -1  
$EndComp
Wire Wire Line
	6300 3950 6700 3950
Wire Wire Line
	6700 3950 6700 4000
Wire Wire Line
	6700 4350 6700 4300
Wire Wire Line
	6300 4350 6700 4350
$Comp
L Device:Ferrite_Bead_Small FB?
U 1 1 5F2C5077
P 2300 1500
AR Path="/5F2C5077" Ref="FB?"  Part="1" 
AR Path="/5EF570ED/5F2C5077" Ref="FB3"  Part="1" 
F 0 "FB3" V 2150 1550 50  0000 C CNN
F 1 "120" V 2150 1350 50  0000 C CNN
F 2 "Inductor_SMD:L_0603_1608Metric_Pad1.05x0.95mm_HandSolder" V 2230 1500 50  0001 C CNN
F 3 "~" H 2300 1500 50  0001 C CNN
	1    2300 1500
	0    1    1    0   
$EndComp
Wire Wire Line
	2050 1500 2200 1500
Wire Wire Line
	2700 1500 2400 1500
$Comp
L power:PWR_FLAG #FLG?
U 1 1 5F31A79C
P 3100 1450
AR Path="/5F31A79C" Ref="#FLG?"  Part="1" 
AR Path="/5EF570ED/5F31A79C" Ref="#FLG0101"  Part="1" 
F 0 "#FLG0101" H 3100 1525 50  0001 C CNN
F 1 "PWR_FLAG" H 3100 1623 50  0000 C CNN
F 2 "" H 3100 1450 50  0001 C CNN
F 3 "~" H 3100 1450 50  0001 C CNN
	1    3100 1450
	1    0    0    -1  
$EndComp
Wire Wire Line
	3100 1450 3100 1500
Connection ~ 3100 1500
$Comp
L Connector:TestPoint TP?
U 1 1 5F3532DC
P 8750 1600
AR Path="/5F3532DC" Ref="TP?"  Part="1" 
AR Path="/5EF570ED/5F3532DC" Ref="TP11"  Part="1" 
F 0 "TP11" V 8750 1788 50  0000 L CNN
F 1 "TestPoint" V 8795 1788 50  0001 L CNN
F 2 "TestPoint:TestPoint_Pad_D1.0mm" H 8950 1600 50  0001 C CNN
F 3 "~" H 8950 1600 50  0001 C CNN
	1    8750 1600
	1    0    0    -1  
$EndComp
$Comp
L Connector:TestPoint TP?
U 1 1 5F353AE4
P 9150 2200
AR Path="/5F353AE4" Ref="TP?"  Part="1" 
AR Path="/5EF570ED/5F353AE4" Ref="TP12"  Part="1" 
F 0 "TP12" V 9150 2388 50  0000 L CNN
F 1 "TestPoint" V 9195 2388 50  0001 L CNN
F 2 "TestPoint:TestPoint_Pad_D1.0mm" H 9350 2200 50  0001 C CNN
F 3 "~" H 9350 2200 50  0001 C CNN
	1    9150 2200
	0    1    1    0   
$EndComp
Wire Wire Line
	8750 1600 8750 1750
Wire Wire Line
	9150 2200 9100 2200
Connection ~ 9100 2200
Wire Wire Line
	9100 2200 9100 2350
Text Notes 1850 2950 0    100  ~ 0
USB Connector
Text Notes 4800 2950 0    100  ~ 0
3v3 Regulator
Text Notes 7750 2950 0    100  ~ 0
Battery Charger
Text Notes 3100 7550 0    100  ~ 0
Audio Amplifier / Speaker
Text Notes 8250 6300 0    100  ~ 0
Display / Backlight
$Comp
L Device:CP C?
U 1 1 5F56E28E
P 10300 4100
AR Path="/5F56E28E" Ref="C?"  Part="1" 
AR Path="/5EF570ED/5F56E28E" Ref="C28"  Part="1" 
F 0 "C28" H 10418 4146 50  0000 L CNN
F 1 "4.7uF" H 10418 4055 50  0000 L CNN
F 2 "Capacitor_SMD:C_0805_2012Metric_Pad1.15x1.40mm_HandSolder" H 10338 3950 50  0001 C CNN
F 3 "~" H 10300 4100 50  0001 C CNN
	1    10300 4100
	1    0    0    -1  
$EndComp
$Comp
L power:+3V3 #PWR?
U 1 1 5F56EC28
P 10300 3850
AR Path="/5F56EC28" Ref="#PWR?"  Part="1" 
AR Path="/5EF570ED/5F56EC28" Ref="#PWR0101"  Part="1" 
F 0 "#PWR0101" H 10300 3700 50  0001 C CNN
F 1 "+3V3" H 10315 4023 50  0000 C CNN
F 2 "" H 10300 3850 50  0001 C CNN
F 3 "" H 10300 3850 50  0001 C CNN
	1    10300 3850
	1    0    0    -1  
$EndComp
Wire Wire Line
	10300 3850 10300 3950
Wire Wire Line
	10300 4250 10300 4350
$Comp
L power:GND #PWR?
U 1 1 5F5795C0
P 10300 4350
AR Path="/5F5795C0" Ref="#PWR?"  Part="1" 
AR Path="/5EF570ED/5F5795C0" Ref="#PWR0102"  Part="1" 
F 0 "#PWR0102" H 10300 4100 50  0001 C CNN
F 1 "GND" H 10305 4177 50  0000 C CNN
F 2 "" H 10300 4350 50  0001 C CNN
F 3 "" H 10300 4350 50  0001 C CNN
	1    10300 4350
	1    0    0    -1  
$EndComp
$Comp
L Device:C C?
U 1 1 5F5AFEBB
P 3700 6700
AR Path="/5F5AFEBB" Ref="C?"  Part="1" 
AR Path="/5EF570ED/5F5AFEBB" Ref="C29"  Part="1" 
F 0 "C29" V 3900 6850 50  0000 C CNN
F 1 "1nF" V 3800 6850 50  0000 C CNN
F 2 "Capacitor_SMD:C_0603_1608Metric_Pad1.05x0.95mm_HandSolder" H 3738 6550 50  0001 C CNN
F 3 "~" H 3700 6700 50  0001 C CNN
	1    3700 6700
	0    1    1    0   
$EndComp
Wire Wire Line
	2200 5750 2100 5750
Connection ~ 2200 5750
Wire Wire Line
	2200 5850 2200 5750
$Comp
L Connector:TestPoint TP?
U 1 1 5EF83048
P 2200 5850
AR Path="/5EF83048" Ref="TP?"  Part="1" 
AR Path="/5EF570ED/5EF83048" Ref="TP9"  Part="1" 
F 0 "TP9" V 2200 6038 50  0000 L CNN
F 1 "TestPoint" V 2245 6038 50  0001 L CNN
F 2 "TestPoint:TestPoint_Pad_D1.0mm" H 2400 5850 50  0001 C CNN
F 3 "~" H 2400 5850 50  0001 C CNN
	1    2200 5850
	1    0    0    1   
$EndComp
$Comp
L Potentiometer_Digital:MCP4018-xxxxLT U6
U 1 1 5F68A099
P 5450 6150
F 0 "U6" H 5350 5750 50  0000 C CNN
F 1 "MCP4018-xxxxLT" H 5050 5850 50  0000 C CNN
F 2 "Package_TO_SOT_SMD:SOT-363_SC-70-6" H 5500 5900 50  0001 L CNN
F 3 "http://ww1.microchip.com/downloads/en/DeviceDoc/22147a.pdf" H 5500 5600 50  0001 L CNN
	1    5450 6150
	-1   0    0    -1  
$EndComp
Wire Wire Line
	3200 3850 3350 3850
Wire Wire Line
	2750 3850 2900 3850
Wire Wire Line
	1700 3850 2450 3850
Wire Wire Line
	5450 6450 5450 6550
Wire Wire Line
	5550 5650 5550 5750
Wire Wire Line
	5850 6150 6050 6150
Text GLabel 6450 6150 2    50   Input ~ 0
SCL
Text GLabel 6450 6250 2    50   Input ~ 0
SDA
$Comp
L Amplifier_Operational:MCP603-xCH U7
U 1 1 5F74A743
P 3650 5650
F 0 "U7" H 3800 5750 50  0000 L CNN
F 1 "MCP603-xCH" H 3750 5850 50  0000 L CNN
F 2 "Package_TO_SOT_SMD:SOT-23-6" H 3650 5650 50  0001 L CNN
F 3 "http://ww1.microchip.com/downloads/en/DeviceDoc/21314g.pdf" H 3700 5850 50  0001 C CNN
	1    3650 5650
	1    0    0    -1  
$EndComp
Wire Wire Line
	3350 5550 3250 5550
$Comp
L power:GND #PWR?
U 1 1 5F751820
P 3250 5550
AR Path="/5F751820" Ref="#PWR?"  Part="1" 
AR Path="/5EF570ED/5F751820" Ref="#PWR0103"  Part="1" 
F 0 "#PWR0103" H 3250 5300 50  0001 C CNN
F 1 "GND" H 3255 5377 50  0000 C CNN
F 2 "" H 3250 5550 50  0001 C CNN
F 3 "" H 3250 5550 50  0001 C CNN
	1    3250 5550
	0    1    1    0   
$EndComp
Wire Wire Line
	3550 5950 3550 6000
$Comp
L power:GND #PWR?
U 1 1 5F757E00
P 3550 6050
AR Path="/5F757E00" Ref="#PWR?"  Part="1" 
AR Path="/5EF570ED/5F757E00" Ref="#PWR0107"  Part="1" 
F 0 "#PWR0107" H 3550 5800 50  0001 C CNN
F 1 "GND" H 3555 5877 50  0000 C CNN
F 2 "" H 3550 6050 50  0001 C CNN
F 3 "" H 3550 6050 50  0001 C CNN
	1    3550 6050
	1    0    0    -1  
$EndComp
Wire Wire Line
	3350 5750 3200 5750
Wire Wire Line
	3200 5750 3200 6400
Wire Wire Line
	3200 6400 3450 6400
Wire Wire Line
	3950 5650 4050 5650
Wire Wire Line
	4050 5650 4050 6400
Wire Wire Line
	4050 6400 3750 6400
Wire Wire Line
	3550 6700 3200 6700
Wire Wire Line
	3200 6700 3200 6400
Connection ~ 3200 6400
Wire Wire Line
	4050 6400 4050 6700
Wire Wire Line
	4050 6700 3850 6700
Connection ~ 4050 6400
Wire Wire Line
	3200 5750 3050 5750
Connection ~ 3200 5750
Wire Wire Line
	2200 5750 2350 5750
Connection ~ 4050 5650
Wire Wire Line
	3550 5300 3550 5350
Wire Wire Line
	5850 6250 6300 6250
Wire Wire Line
	4900 5950 5050 5950
Text GLabel 5250 6950 2    50   Input ~ 0
AUDIO_FILT
Wire Wire Line
	4900 5650 4900 5950
Text GLabel 1700 3850 0    50   Input ~ 0
AUDIO_FILT
Wire Wire Line
	3550 6000 3650 6000
Wire Wire Line
	3650 6000 3650 5950
Connection ~ 3550 6000
Wire Wire Line
	3550 6000 3550 6050
$Comp
L Device:R R?
U 1 1 5F83973F
P 4500 5850
AR Path="/5F83973F" Ref="R?"  Part="1" 
AR Path="/5EF570ED/5F83973F" Ref="R6"  Part="1" 
F 0 "R6" V 4600 5950 50  0000 L CNN
F 1 "2.2K" V 4600 5750 50  0000 L CNN
F 2 "Resistor_SMD:R_0603_1608Metric_Pad1.05x0.95mm_HandSolder" V 4430 5850 50  0001 C CNN
F 3 "~" H 4500 5850 50  0001 C CNN
	1    4500 5850
	1    0    0    -1  
$EndComp
Wire Wire Line
	4050 5650 4500 5650
Wire Wire Line
	5050 6050 4800 6050
Wire Wire Line
	4500 6050 4500 6000
Wire Wire Line
	4500 5700 4500 5650
Connection ~ 4500 5650
Wire Wire Line
	4500 5650 4900 5650
Wire Wire Line
	4500 6050 4500 6100
Connection ~ 4500 6050
Wire Wire Line
	4500 6400 4500 6550
$Comp
L power:GND #PWR?
U 1 1 5F88A2B2
P 4500 6550
AR Path="/5F88A2B2" Ref="#PWR?"  Part="1" 
AR Path="/5EF570ED/5F88A2B2" Ref="#PWR0108"  Part="1" 
F 0 "#PWR0108" H 4500 6300 50  0001 C CNN
F 1 "GND" H 4505 6377 50  0000 C CNN
F 2 "" H 4500 6550 50  0001 C CNN
F 3 "" H 4500 6550 50  0001 C CNN
	1    4500 6550
	-1   0    0    -1  
$EndComp
Wire Wire Line
	4800 6050 4800 6600
Wire Wire Line
	4800 6950 5250 6950
Connection ~ 4800 6050
Wire Wire Line
	4800 6050 4500 6050
Wire Wire Line
	4900 6600 4800 6600
Connection ~ 4800 6600
Wire Wire Line
	4800 6600 4800 6950
$Comp
L Device:C C?
U 1 1 5F8AD9D4
P 2800 6600
AR Path="/5F8AD9D4" Ref="C?"  Part="1" 
AR Path="/5EF570ED/5F8AD9D4" Ref="C31"  Part="1" 
F 0 "C31" V 3000 6750 50  0000 C CNN
F 1 "1uF" V 2900 6750 50  0000 C CNN
F 2 "Capacitor_SMD:C_0603_1608Metric_Pad1.05x0.95mm_HandSolder" H 2838 6450 50  0001 C CNN
F 3 "~" H 2800 6600 50  0001 C CNN
	1    2800 6600
	-1   0    0    1   
$EndComp
Wire Wire Line
	2800 6350 2800 6450
Wire Wire Line
	2800 6750 2800 6850
$Comp
L power:GND #PWR?
U 1 1 5F8BFA3C
P 2800 6850
AR Path="/5F8BFA3C" Ref="#PWR?"  Part="1" 
AR Path="/5EF570ED/5F8BFA3C" Ref="#PWR0110"  Part="1" 
F 0 "#PWR0110" H 2800 6600 50  0001 C CNN
F 1 "GND" H 2805 6677 50  0000 C CNN
F 2 "" H 2800 6850 50  0001 C CNN
F 3 "" H 2800 6850 50  0001 C CNN
	1    2800 6850
	1    0    0    -1  
$EndComp
$Comp
L power:+3.3VADC #PWR0111
U 1 1 5F8FFF40
P 5550 5650
F 0 "#PWR0111" H 5700 5600 50  0001 C CNN
F 1 "+3.3VADC" H 5565 5823 50  0000 C CNN
F 2 "" H 5550 5650 50  0001 C CNN
F 3 "" H 5550 5650 50  0001 C CNN
	1    5550 5650
	1    0    0    -1  
$EndComp
$Comp
L power:+3.3VADC #PWR0112
U 1 1 5F900584
P 3550 5300
F 0 "#PWR0112" H 3700 5250 50  0001 C CNN
F 1 "+3.3VADC" H 3565 5473 50  0000 C CNN
F 2 "" H 3550 5300 50  0001 C CNN
F 3 "" H 3550 5300 50  0001 C CNN
	1    3550 5300
	1    0    0    -1  
$EndComp
Text Label 4350 5650 0    50   ~ 0
AUDIO_VOL_IN
$Comp
L power:+3.3VADC #PWR0109
U 1 1 5F953A08
P 2800 6350
F 0 "#PWR0109" H 2950 6300 50  0001 C CNN
F 1 "+3.3VADC" H 2815 6523 50  0000 C CNN
F 2 "" H 2800 6350 50  0001 C CNN
F 3 "" H 2800 6350 50  0001 C CNN
	1    2800 6350
	1    0    0    -1  
$EndComp
$Comp
L Device:R R?
U 1 1 5F9E2F50
P 6050 5900
AR Path="/5F9E2F50" Ref="R?"  Part="1" 
AR Path="/5EF570ED/5F9E2F50" Ref="R27"  Part="1" 
F 0 "R27" V 6150 6000 50  0000 L CNN
F 1 "10K" V 6150 5800 50  0000 L CNN
F 2 "Resistor_SMD:R_0603_1608Metric_Pad1.05x0.95mm_HandSolder" V 5980 5900 50  0001 C CNN
F 3 "~" H 6050 5900 50  0001 C CNN
	1    6050 5900
	1    0    0    -1  
$EndComp
$Comp
L Device:R R?
U 1 1 5F9E32A6
P 6300 5900
AR Path="/5F9E32A6" Ref="R?"  Part="1" 
AR Path="/5EF570ED/5F9E32A6" Ref="R28"  Part="1" 
F 0 "R28" V 6400 6000 50  0000 L CNN
F 1 "10K" V 6400 5800 50  0000 L CNN
F 2 "Resistor_SMD:R_0603_1608Metric_Pad1.05x0.95mm_HandSolder" V 6230 5900 50  0001 C CNN
F 3 "~" H 6300 5900 50  0001 C CNN
	1    6300 5900
	1    0    0    -1  
$EndComp
Wire Wire Line
	6050 6050 6050 6150
Connection ~ 6050 6150
Wire Wire Line
	6050 6150 6450 6150
Connection ~ 6300 6250
Wire Wire Line
	6300 6250 6450 6250
Wire Wire Line
	6300 6050 6300 6250
$Comp
L power:+3V3 #PWR?
U 1 1 5F9FE174
P 6050 5650
AR Path="/5F9FE174" Ref="#PWR?"  Part="1" 
AR Path="/5EF570ED/5F9FE174" Ref="#PWR058"  Part="1" 
F 0 "#PWR058" H 6050 5500 50  0001 C CNN
F 1 "+3V3" H 6065 5823 50  0000 C CNN
F 2 "" H 6050 5650 50  0001 C CNN
F 3 "" H 6050 5650 50  0001 C CNN
	1    6050 5650
	1    0    0    -1  
$EndComp
$Comp
L power:+3V3 #PWR?
U 1 1 5F9FE696
P 6300 5650
AR Path="/5F9FE696" Ref="#PWR?"  Part="1" 
AR Path="/5EF570ED/5F9FE696" Ref="#PWR059"  Part="1" 
F 0 "#PWR059" H 6300 5500 50  0001 C CNN
F 1 "+3V3" H 6315 5823 50  0000 C CNN
F 2 "" H 6300 5650 50  0001 C CNN
F 3 "" H 6300 5650 50  0001 C CNN
	1    6300 5650
	1    0    0    -1  
$EndComp
Wire Wire Line
	6300 5650 6300 5750
Wire Wire Line
	6050 5650 6050 5750
Text GLabel 2100 5750 0    50   Input ~ 0
SPK_PWM
$Comp
L Device:R R?
U 1 1 5EF82FC7
P 3050 3850
AR Path="/5EF82FC7" Ref="R?"  Part="1" 
AR Path="/5EF570ED/5EF82FC7" Ref="R13"  Part="1" 
F 0 "R13" V 2900 3650 50  0000 C CNN
F 1 "100" V 2900 3900 50  0000 C CNN
F 2 "Resistor_SMD:R_0603_1608Metric_Pad1.05x0.95mm_HandSolder" V 2980 3850 50  0001 C CNN
F 3 "~" H 3050 3850 50  0001 C CNN
	1    3050 3850
	0    1    1    0   
$EndComp
$Comp
L Device:R R?
U 1 1 5EF82FCF
P 3050 4050
AR Path="/5EF82FCF" Ref="R?"  Part="1" 
AR Path="/5EF570ED/5EF82FCF" Ref="R14"  Part="1" 
F 0 "R14" V 3150 4150 50  0000 L CNN
F 1 "100" V 3150 3950 50  0000 L CNN
F 2 "Resistor_SMD:R_0603_1608Metric_Pad1.05x0.95mm_HandSolder" V 2980 4050 50  0001 C CNN
F 3 "~" H 3050 4050 50  0001 C CNN
	1    3050 4050
	0    -1   -1   0   
$EndComp
$Comp
L Device:R R?
U 1 1 5F861AAE
P 4500 6250
AR Path="/5F861AAE" Ref="R?"  Part="1" 
AR Path="/5EF570ED/5F861AAE" Ref="R26"  Part="1" 
F 0 "R26" V 4600 6350 50  0000 L CNN
F 1 "2.2K" V 4600 6150 50  0000 L CNN
F 2 "Resistor_SMD:R_0603_1608Metric_Pad1.05x0.95mm_HandSolder" V 4430 6250 50  0001 C CNN
F 3 "~" H 4500 6250 50  0001 C CNN
	1    4500 6250
	1    0    0    -1  
$EndComp
$Comp
L Device:C C?
U 1 1 5FBA08D5
P 2500 5750
AR Path="/5FBA08D5" Ref="C?"  Part="1" 
AR Path="/5EF570ED/5FBA08D5" Ref="C32"  Part="1" 
F 0 "C32" H 2400 5650 50  0000 C CNN
F 1 "100u" H 2350 5550 50  0000 C CNN
F 2 "Capacitor_SMD:C_1206_3216Metric_Pad1.42x1.75mm_HandSolder" H 2538 5600 50  0001 C CNN
F 3 "~" H 2500 5750 50  0001 C CNN
	1    2500 5750
	0    1    1    0   
$EndComp
Wire Wire Line
	2750 5750 2650 5750
$EndSCHEMATC
